IOT Tracking System/gsmTraces.vcd
$date
     Jan 12, 2022       00:57:47
$end

$version
 SystemC 2.3.3-Accellera --- Nov 19 2021 02:24:44
$end

$timescale
     1 ns
$end

$scope module SystemC $end
$var wire   32  aaaaa  Master-R/W [31:0]  $end
$var wire   32  aaaab  Master-Address [31:0]  $end
$var wire   32  aaaac  Master-Data-Write [31:0]  $end
$var wire   32  aaaad  Slave-R/W [31:0]  $end
$var wire   32  aaaae  Slave-Address [31:0]  $end
$var wire   32  aaaaf  Slave-Data-Write [31:0]  $end
$var wire   32  aaaag  Slave-Data-Read [31:0]  $end
$var wire   32  aaaah  Master-Data-Read [31:0]  $end
$upscope $end
$enddefinitions  $end

$comment
All initial values are dumped below at time 0 sec = 0 timescale units.
$end

$dumpvars
b10 aaaaa
b0 aaaab
b0 aaaac
b10 aaaad
b0 aaaae
b0 aaaaf
b0 aaaag
b0 aaaah
$end

#10
b1 aaaaa
b100000000 aaaab
b11011110101011011011111011101111 aaaac
b1 aaaad
b1000000 aaaae
b11011110101011011011111011101111 aaaaf

#14
b10 aaaaa
b10 aaaad

#24
b1 aaaaa
b100000100 aaaab
b11011110101011011011111011110000 aaaac
b1 aaaad
b1000001 aaaae
b11011110101011011011111011110000 aaaaf

#28
b10 aaaaa
b10 aaaad

#38
b1 aaaaa
b100001000 aaaab
b11011110101011011011111011110001 aaaac
b1 aaaad
b1000010 aaaae
b11011110101011011011111011110001 aaaaf

#42
b10 aaaaa
b10 aaaad

#52
b1 aaaaa
b100001100 aaaab
b11011110101011011011111011110010 aaaac
b1 aaaad
b1000011 aaaae
b11011110101011011011111011110010 aaaaf

#56
b10 aaaaa
b10 aaaad

#66
b1 aaaaa
b100010000 aaaab
b11011110101011011011111011110011 aaaac
b1 aaaad
b1000100 aaaae
b11011110101011011011111011110011 aaaaf

#70
b10 aaaaa
b10 aaaad

#80
b1 aaaaa
b100010100 aaaab
b11011110101011011011111011110100 aaaac
b1 aaaad
b1000101 aaaae
b11011110101011011011111011110100 aaaaf

#84
b10 aaaaa
b10 aaaad

#94
b1 aaaaa
b100011000 aaaab
b11011110101011011011111011110101 aaaac
b1 aaaad
b1000110 aaaae
b11011110101011011011111011110101 aaaaf

#98
b10 aaaaa
b10 aaaad

#108
b1 aaaaa
b100011100 aaaab
b11011110101011011011111011110110 aaaac
b1 aaaad
b1000111 aaaae
b11011110101011011011111011110110 aaaaf

#112
b10 aaaaa
b10 aaaad

#122
b1 aaaaa
b100100000 aaaab
b11011110101011011011111011110111 aaaac
b1 aaaad
b1001000 aaaae
b11011110101011011011111011110111 aaaaf

#126
b10 aaaaa
b10 aaaad

#136
b1 aaaaa
b100100100 aaaab
b11011110101011011011111011111000 aaaac
b1 aaaad
b1001001 aaaae
b11011110101011011011111011111000 aaaaf

#140
b10 aaaaa
b10 aaaad

#150
b1 aaaaa
b10000000000000000000100000000 aaaab
b10111110111011111101111010101101 aaaac

#154
b10 aaaaa

#164
b1 aaaaa
b10000000000000000000100000100 aaaab
b10111110111011111101111010101110 aaaac

#168
b10 aaaaa

#178
b1 aaaaa
b10000000000000000000100001000 aaaab
b10111110111011111101111010101111 aaaac

#182
b10 aaaaa

#192
b1 aaaaa
b10000000000000000000100001100 aaaab
b10111110111011111101111010110000 aaaac

#196
b10 aaaaa

#206
b1 aaaaa
b10000000000000000000100010000 aaaab
b10111110111011111101111010110001 aaaac

#210
b10 aaaaa

#220
b1 aaaaa
b10000000000000000000100010100 aaaab
b10111110111011111101111010110010 aaaac

#224
b10 aaaaa

#234
b1 aaaaa
b10000000000000000000100011000 aaaab
b10111110111011111101111010110011 aaaac

#238
b10 aaaaa

#248
b1 aaaaa
b10000000000000000000100011100 aaaab
b10111110111011111101111010110100 aaaac

#252
b10 aaaaa

#262
b1 aaaaa
b10000000000000000000100100000 aaaab
b10111110111011111101111010110101 aaaac

#266
b10 aaaaa

#276
b1 aaaaa
b10000000000000000000100100100 aaaab
b10111110111011111101111010110110 aaaac

#280
b10 aaaaa

#300
b0 aaaaa
b100000000 aaaab
b0 aaaad
b1000000 aaaae
b11011110101011011011111011101111 aaaag
b11011110101011011011111011101111 aaaah

#303
b10 aaaaa
b10 aaaad

#313
b0 aaaaa
b100000100 aaaab
b0 aaaad
b1000001 aaaae
b11011110101011011011111011110000 aaaag
b11011110101011011011111011110000 aaaah

#316
b10 aaaaa
b10 aaaad

#326
b0 aaaaa
b100001000 aaaab
b0 aaaad
b1000010 aaaae
b11011110101011011011111011110001 aaaag
b11011110101011011011111011110001 aaaah

#329
b10 aaaaa
b10 aaaad

#339
b0 aaaaa
b100001100 aaaab
b0 aaaad
b1000011 aaaae
b11011110101011011011111011110010 aaaag
b11011110101011011011111011110010 aaaah

#342
b10 aaaaa
b10 aaaad

#352
b0 aaaaa
b100010000 aaaab
b0 aaaad
b1000100 aaaae
b11011110101011011011111011110011 aaaag
b11011110101011011011111011110011 aaaah

#355
b10 aaaaa
b10 aaaad

#365
b0 aaaaa
b100010100 aaaab
b0 aaaad
b1000101 aaaae
b11011110101011011011111011110100 aaaag
b11011110101011011011111011110100 aaaah

#368
b10 aaaaa
b10 aaaad

#378
b0 aaaaa
b100011000 aaaab
b0 aaaad
b1000110 aaaae
b11011110101011011011111011110101 aaaag
b11011110101011011011111011110101 aaaah

#381
b10 aaaaa
b10 aaaad

#391
b0 aaaaa
b100011100 aaaab
b0 aaaad
b1000111 aaaae
b11011110101011011011111011110110 aaaag
b11011110101011011011111011110110 aaaah

#394
b10 aaaaa
b10 aaaad

#404
b0 aaaaa
b100100000 aaaab
b0 aaaad
b1001000 aaaae
b11011110101011011011111011110111 aaaag
b11011110101011011011111011110111 aaaah

#407
b10 aaaaa
b10 aaaad

#417
b0 aaaaa
b100100100 aaaab
b0 aaaad
b1001001 aaaae
b11011110101011011011111011111000 aaaag
b11011110101011011011111011111000 aaaah

#420
b10 aaaaa
b10 aaaad

#430
b0 aaaaa
b10000000000000000000100000000 aaaab
b10111110111011111101111010101101 aaaah

#433
b10 aaaaa

#443
b0 aaaaa
b10000000000000000000100000100 aaaab
b10111110111011111101111010101110 aaaah

#446
b10 aaaaa

#456
b0 aaaaa
b10000000000000000000100001000 aaaab
b10111110111011111101111010101111 aaaah

#459
b10 aaaaa

#469
b0 aaaaa
b10000000000000000000100001100 aaaab
b10111110111011111101111010110000 aaaah

#472
b10 aaaaa

#482
b0 aaaaa
b10000000000000000000100010000 aaaab
b10111110111011111101111010110001 aaaah

#485
b10 aaaaa

#495
b0 aaaaa
b10000000000000000000100010100 aaaab
b10111110111011111101111010110010 aaaah

#498
b10 aaaaa

#508
b0 aaaaa
b10000000000000000000100011000 aaaab
b10111110111011111101111010110011 aaaah

#511
b10 aaaaa

#521
b0 aaaaa
b10000000000000000000100011100 aaaab
b10111110111011111101111010110100 aaaah

#524
b10 aaaaa

#534
b0 aaaaa
b10000000000000000000100100000 aaaab
b10111110111011111101111010110101 aaaah

#537
b10 aaaaa

#547
b0 aaaaa
b10000000000000000000100100100 aaaab
b10111110111011111101111010110110 aaaah

#550
b10 aaaaa

